{
  "DbUser": "mapperuser",
  "DbPassword": "mapper-pass",
  "DbHost": "127.0.0.1",
  "DbSchema": "public",
  "DbName": "csrn-mapper-db",
  "DbPort": 1442,
  "ApiKeys": [
    {"User":"query", "Key":"a"},
    {"User":"admin", "Key":"b"}
  ]
}